<svg xmlns="http://www.w3.org/2000/svg" xmlns:xlink="http://www.w3.org/1999/xlink" width="195" height="70">
  <defs>
    <path id="a" d="M659.7 3088.18c2.66-.41 5.83-.72 9.11-.82-.3-2.98-.61-6.15-.82-9.33 0-.51-.4-4.5-.5-6.25-.11-.2-.32-.72-.62-.72-.41 0-.82.82-2.46 5.43-.2.62-.41 1.23-.52 1.44-1.33 3.38-2.66 6.86-4.2 10.25zm-27.37 29.3c.82-.1 9.43.52 22.44-26.23-14.04 2.36-21.1 8.2-21.2 8.3-.11.1-.62.51-.73.62-3.69 3.38-7.27 8.5-6.15 13.73.62 2.97 2.77 4 5.64 3.59zm148.09-25.72c-2.57 0-5.44 8.61-5.74 10.87 2.76-1.75 6.86-6.05 6.86-9.43 0-.72-.3-1.44-1.12-1.44zm13.63 10.76c.4 0 .92.31.92.72 0 .82-.2 1.23-.62 1.95-3.28 5.84-11.06 10.25-18.03 10.25-4.41 0-6.46-3.08-6.97-6.87-2.77 3.38-6.87 7.48-10.35 7.48-4.1 0-5.43-4.61-5.74-8.4-2.56 3.28-6.15 6.45-9.43 6.45-3.9 0-4.61-4.3-4.61-7.48v-.92l.2-7.28c0-.3-.1-1.23-.61-1.23-.41 0-1.13.72-1.44 1.03-2.05 2.05-4 5.02-5.53 7.48a80.52 80.52 0 0 0-4.82 9.33c-.51 1.02-1.43 2.05-2.66 2.05-.92 0-1.33-.82-1.33-1.64 0-2.16.2-4.41.5-6.66-2.45 2.86-5.63 5.32-8.5 5.32-3.9 0-4.6-4.3-4.6-7.48v-.92l.2-7.28c0-.3-.1-1.23-.62-1.23-.4 0-1.13.72-1.43 1.03-2.05 2.05-4 5.02-5.54 7.48a80.2 80.2 0 0 0-4.81 9.33c-.52 1.02-1.44 2.04-2.67 2.04-.92 0-1.33-.81-1.33-1.63 0-2.26.2-4.62.51-6.97-3.28 3.69-7.48 6.86-11.17 6.86-7.17 0-11.99-7.79-14.24-23.16v-.2l-.31-1.64v-.31c-4.1.1-8 .41-10.56.72-11.47 30.43-24.6 31.25-26.23 31.25-4.51.1-6.87-1.12-8.4-5.12-2.98-7.9 2.66-14.35 7.68-18.55.2-.2.41-.4.62-.51 1.02-.82 8.8-6.87 23.77-9.02 3.18-7.07 5.02-12.1 6.97-17.22 1.02-2.56 1.84-4.71 2.46-6.25 1.33-3.38 1.95-6.15 1.95-9.22 0-2.26 5.22-4.1 7.17-4.1 1.13 0 1.64 1.43 1.64 2.36 0 .1-.1.4-.1.92-.2 1.95-.72 7.07-.62 17.83 0 4.4 0 9.22.52 14.04v.2c3.58.21 6.86.62 8.8 1.24.83.3 1.14.4 1.75 1.02.3.3.1.82-.2 1.13-.72.61-1.85.3-2.57.1-1.64-.41-4.4-.72-7.58-.82l.2 1.23v.2c.1.21 2.16 19.58 8 19.58 4.4 0 9.73-5.95 11.89-8.71.4-2.05.82-4 1.23-5.95.4-2.05.71-4.1 1.12-6.04.31-1.54 2.05-3.08 3.7-3.08 1.53 0 1.94.82 1.94 2.16 0 2.25-.92 4.81-1.64 6.86a30.92 30.92 0 0 0-1.74 7.38s7.79-11.38 11.07-11.38c2.46 0 2.56 4.3 2.56 6.15v8.92c0 1.44.1 3.8 2.05 3.8 2.97 0 6.45-4.72 8.2-7.8a417.6 417.6 0 0 1 1.53-7.17c.41-2.05.72-4.1 1.13-6.05.3-1.53 2.05-3.07 3.7-3.07 1.53 0 1.94.82 1.94 2.15 0 2.25-.92 4.82-1.64 6.87a30.92 30.92 0 0 0-1.75 7.38s7.8-11.38 11.07-11.38c2.46 0 2.56 4.3 2.56 6.15v8.91c0 1.44.1 3.8 2.05 3.8 2.87 0 6.36-4.51 8.1-7.59.2-2.05.72-4.3 1.23-6.04.82-2.36 1.95-4.1 4.61-4.1.92 0 1.44.4 1.44 1.43 0 1.74-1.54 4.82-1.95 6.77a25.61 25.61 0 0 0-.62 5.63c0 1.54.1 5.84 2.26 5.84 2.87 0 6.76-4.92 9.12-8.4 1.03-6.15 5.33-15.58 11.37-15.58 2.36 0 3.6 1.54 3.6 3.8 0 4.2-6.05 10.96-9.95 12.4-.2.92-.3 1.74-.3 2.66 0 2.87 1.12 4.61 4.1 4.61 5.32 0 11.27-3.9 13.83-8.2.4-.61 1.02-1.64 1.95-1.64zm-34.23-13.42c-1.34 0-2.16-1.13-2.16-2.46 0-1.64 1.23-3.38 2.98-3.38 1.33 0 2.25 1.23 2.25 2.46 0 1.64-1.33 3.38-3.07 3.38zm32.07-2.05c-.4 0-.51-.2-.61-.51 0-.62 2.35-3.08 2.35-6.66 0-.93-.3-1.75-.3-2.67 0-1.43 1.23-2.77 2.66-2.77 1.23 0 2.16.72 2.16 2.05 0 .52 0 1.13-.1 1.64-.32 2.05-3.8 8.92-6.16 8.92zm14.25 5.84c1.94 4.92 5.94 9.84 6.04 15.27 0 1.74-.4 3.48-1.43 4.92 0 0-2.25 4.2-6.87 4.1-2.35-.1-5.63-.41-7.48-2.15-.4-.41-.71-.82-.71-1.44 0-.61.4-.92 1.02-.92.51 0 1.23.51 1.13.4 1.33 1.03 2.87 1.24 4.5 1.24 3.39 0 5.13-2.26 5.13-5.54 0-3.9-3.59-9.63-4.71-11.78-.41.3-1.13.4-1.95.92-.62.41-1.13-.1-1.13-.1-.51-.62-.1-1.03.3-1.54l1.65-1.54-.2-.81a9.87 9.87 0 0 1-.62-3.39c0-2.46 1.33-5.94 4.4-5.94 1.65 0 2.06 2.25 2.06 3.48 0 2.15-.41 2.87-1.13 4.82zm8.1-7.38h.3c.3 0 .62-.1.62-.4 0-.21-.2-.42-.62-.42h-.3zm0 1.54h-.62v-2.77c.2 0 .61-.1 1.02-.1.52 0 .72.1.93.2.2.1.3.31.3.62 0 .3-.2.51-.61.61.3.1.4.31.51.72.1.41.1.62.2.72h-.71c-.1-.1-.1-.3-.2-.72 0-.3-.21-.4-.62-.4h-.3zm.4.72c1.23 0 2.05-.93 2.05-2.16s-.92-2.25-2.15-2.25c-1.13 0-2.05 1.02-2.05 2.25a2.1 2.1 0 0 0 2.15 2.16zm0 .61a2.84 2.84 0 0 1-2.87-2.77 2.78 2.78 0 0 1 2.87-2.76 2.76 2.76 0 0 1 2.77 2.76 2.76 2.76 0 0 1-2.77 2.77z"/>
  </defs>
  <use fill="#4f2683" xlink:href="#a" transform="translate(-623 -3052)"/>
</svg>
